simulation/qsim/PBL3.msim.vcd
$comment
	File created using the following command:
		vcd file PBL3.msim.vcd -direction
$end
$date
	Thu Feb 22 00:27:12 2024
$end
$version
	ModelSim Version 2020.1
$end
$timescale
	1ps
$end

$scope module maq_enc_veda_vlg_vec_tst $end
$var reg 1 ! CH $end
$var reg 1 " PG $end
$var reg 1 # RO $end
$var reg 1 $ clk $end
$var reg 1 % reset $end
$var wire 1 & EV $end
$var wire 1 ' GC $end
$var wire 1 ( VE $end
$var wire 1 ) tipo [2] $end
$var wire 1 * tipo [1] $end
$var wire 1 + tipo [0] $end

$scope module i1 $end
$var wire 1 , gnd $end
$var wire 1 - vcc $end
$var wire 1 . unknown $end
$var tri1 1 / devclrn $end
$var tri1 1 0 devpor $end
$var tri1 1 1 devoe $end
$var wire 1 2 clk~combout $end
$var wire 1 3 RO~combout $end
$var wire 1 4 PG~combout $end
$var wire 1 5 CH~combout $end
$var wire 1 6 reset~combout $end
$var wire 1 7 current_state.SEM_GARRAFA~regout $end
$var wire 1 8 current_state.GARRAFA_VAZIA~regout $end
$var wire 1 9 Selector2~0_combout $end
$var wire 1 : current_state.GARRAFA_CHEIA~regout $end
$var wire 1 ; current_state.GARRAFA_CHEIA_VEDADA~regout $end
$var wire 1 < tipo~0_combout $end
$var wire 1 = tipo~1_combout $end
$upscope $end
$upscope $end
$enddefinitions $end
#0
$dumpvars
0!
0"
0#
0$
0%
0&
0'
0(
0+
0*
0)
0,
1-
x.
1/
10
11
02
03
04
05
06
07
08
09
0:
0;
1<
1=
$end
#10000
1$
12
#20000
0$
02
#30000
1$
12
#40000
0$
02
#50000
1"
1$
14
12
#60000
0$
02
#70000
1!
1$
15
12
17
18
0<
19
1+
#80000
0$
02
#90000
1$
12
1:
08
1<
0=
09
1&
1*
0+
#100000
0$
02
#110000
1$
12
#120000
0$
02
#130000
1$
12
#140000
0$
02
#150000
1$
12
#160000
0$
02
#170000
1#
1$
13
12
#180000
0$
02
#190000
1$
12
1;
0:
0<
1(
1'
0&
1+
#200000
0$
02
#210000
1$
12
#220000
0$
02
#230000
1$
12
#240000
0$
02
#250000
0!
1$
05
12
#260000
0$
02
#270000
1$
12
#280000
0$
02
#290000
1$
12
#300000
0$
02
#310000
1$
12
#320000
0$
02
#330000
1$
12
#340000
0$
02
#350000
1$
12
#360000
0$
02
#370000
1$
12
#380000
0#
0$
03
02
#390000
1$
12
#400000
0$
02
#410000
1$
12
#420000
0$
02
#430000
1$
12
#440000
0$
02
#450000
1$
12
#460000
0$
02
#470000
1$
12
#480000
0$
02
#490000
1$
12
#500000
0$
02
#510000
1$
12
#520000
0$
02
#530000
1$
12
#540000
0$
02
#550000
1$
12
#560000
0$
02
#570000
1$
12
#580000
0$
02
#590000
1$
12
#600000
0$
02
#610000
1$
12
#620000
0$
02
#630000
1$
12
#640000
0$
02
#650000
1$
12
#660000
0$
02
#670000
1$
12
#680000
0$
02
#690000
1$
12
#700000
0$
02
#710000
1$
12
#720000
0$
02
#730000
1$
12
#740000
0$
02
#750000
1$
12
#760000
0$
02
#770000
1$
12
#780000
0$
02
#790000
1$
12
#800000
0$
02
#810000
1$
12
#820000
0$
02
#830000
1$
12
#840000
0$
02
#850000
1$
12
#860000
0$
02
#870000
1$
12
#880000
0$
02
#890000
1$
12
#900000
0$
02
#910000
1$
12
#920000
0$
02
#930000
1$
12
#940000
0$
02
#950000
0"
1$
04
12
#960000
0$
02
#970000
1$
12
0;
07
1=
1<
0(
0'
0+
0*
#980000
0$
02
#990000
1$
12
